<?xml version="1.0" encoding="UTF-8"?>
<session version="1.0">
<refactoring comment="Rename local variable &apos;return_text_cell&apos; in &apos;com.mxgraph.examples.web.MyEchoServlet.doPost(...)&apos; to &apos;result_text_cell&apos;&#x0D;&#x0A;- Original project: &apos;mxgraph-master&apos;&#x0D;&#x0A;- Original element: &apos;com.mxgraph.examples.web.MyEchoServlet.doPost(HttpServletRequest, HttpServletResponse).return_text_cell&apos;&#x0D;&#x0A;- Renamed element: &apos;return_text_cell&apos;&#x0D;&#x0A;- Update references to refactored element" description="Rename local variable &apos;return_text_cell&apos;" id="org.eclipse.jdt.ui.rename.local.variable" input="/java\/examples&lt;com.mxgraph.examples.web{MyEchoServlet.java[MyEchoServlet~doPost~QHttpServletRequest;~QHttpServletResponse;@return_text_cell!2671!2701!2678!2693!QmxCell;!0!false" name="result_text_cell" references="true" stamp="1511163345966" version="1.0"/>
</session>