INDEX VERSION 1.3+C:\Users\roman\YandexDisk\WORKS\drakongen\develop\WRK_DrakonGen\.metadata\.plugins\org.eclipse.wst.jsdt.core\indexes
2049264777.index
665267490.index
4022923945.index
4106550740.index
3267509667.index
2919532528.index
