<?xml version="1.0" encoding="UTF-8"?>
<session version="1.0">
<refactoring comment="Delete resource &apos;mxgraph-master&apos;" deleteContents="false" description="Delete resource &apos;mxgraph-master&apos;" element1="/mxgraph-master" flags="7" id="org.eclipse.ltk.core.refactoring.delete.resources" resources="1" stamp="1511227216603"/>
</session>