INDEX VERSION 1.130+D:\YandexDisk\YandexDisk\WORKS\drakongen\develop\WRK_DragonGen2J\.metadata\.plugins\org.eclipse.jdt.core
1608003803.index
3617855988.index
3764404749.index
4106570517.index
900771366.index
83085761.index
4236009997.index
47423239.index
534899724.index
3678980623.index
1188377664.index
522964891.index
3784114688.index
1052317793.index
2261558828.index
2652855493.index
2945162093.index
534631340.index
1484076330.index
2497621256.index
1670528678.index
2918802028.index
3704931030.index
1507339265.index
4142306923.index
430205200.index
1651349548.index
889123873.index
3930511455.index
509712851.index
1948745554.index
3876561862.index
2737538069.index
