INDEX VERSION 1.3+C:\Users\roman\YandexDisk\WORKS\drakongen\develop\WRK_DragonGen2J\.metadata\.plugins\org.eclipse.wst.jsdt.core\indexes
3267509667.index
1986043155.index
3286459895.index
942750049.index
3468825025.index
652367190.index
