INDEX VERSION 1.130+C:\Users\roman\YandexDisk\WORKS\drakongen\develop\WRK_DrakonGen\.metadata\.plugins\org.eclipse.jdt.core
2373432673.index
577483476.index
3161043834.index
2960595338.index
1256894433.index
1146958911.index
1425059559.index
4175991861.index
3396081029.index
2652855493.index
1795601374.index
4106570517.index
610803759.index
1188377664.index
1113930982.index
1814893797.index
4131773945.index
2881442861.index
4254975149.index
1052317793.index
2737538069.index
857692404.index
534899724.index
2783500240.index
889123873.index
1041113333.index
3267509667.index
534631340.index
277686846.index
763546727.index
3572299378.index
1823762683.index
3667630726.index
2167949672.index
2497621256.index
2448770698.index
1150825625.index
3228100295.index
2889266545.index
3419490812.index
3617855988.index
1323420839.index
1517655788.index
